\relax 
\providecommand\hyper@newdestlabel[2]{}
\providecommand\HyperFirstAtBeginDocument{\AtBeginDocument}
\HyperFirstAtBeginDocument{\ifx\hyper@anchor\@undefined
\global\let\oldcontentsline\contentsline
\gdef\contentsline#1#2#3#4{\oldcontentsline{#1}{#2}{#3}}
\global\let\oldnewlabel\newlabel
\gdef\newlabel#1#2{\newlabelxx{#1}#2}
\gdef\newlabelxx#1#2#3#4#5#6{\oldnewlabel{#1}{{#2}{#3}}}
\AtEndDocument{\ifx\hyper@anchor\@undefined
\let\contentsline\oldcontentsline
\let\newlabel\oldnewlabel
\fi}
\fi}
\global\let\hyper@last\relax 
\gdef\HyperFirstAtBeginDocument#1{#1}
\providecommand\HyField@AuxAddToFields[1]{}
\providecommand\HyField@AuxAddToCoFields[2]{}
\@writefile{toc}{\contentsline {section}{4.4: Exercises 1,7,8,47,50,53,57,73}{1}{section*.1}}
\@writefile{toc}{\contentsline {subsection}{Exercises 1 - 6}{1}{section*.2}}
\@writefile{toc}{\contentsline {subsubsection}{Ex. 1}{1}{section*.3}}
\@writefile{toc}{\contentsline {subsection}{Exercises 7 - 12}{1}{section*.4}}
\@writefile{toc}{\contentsline {subsubsection}{Ex. 7}{1}{section*.5}}
\@writefile{toc}{\contentsline {subsubsection}{Ex. 8}{1}{section*.6}}
\@writefile{toc}{\contentsline {subsection}{Exercises 43-48}{1}{section*.7}}
\@writefile{toc}{\contentsline {subsubsection}{Ex. 47}{1}{section*.8}}
\@writefile{toc}{\contentsline {subsection}{Exercises 49-52}{2}{section*.9}}
\@writefile{toc}{\contentsline {subsubsection}{Ex. 50}{2}{section*.10}}
\@writefile{toc}{\contentsline {subsection}{Exercises 53-56}{2}{section*.11}}
\@writefile{toc}{\contentsline {subsubsection}{Ex. 53}{2}{section*.12}}
\@writefile{toc}{\contentsline {subsection}{Ex. 57}{2}{section*.13}}
\@writefile{toc}{\contentsline {subsection}{Ex. 73}{2}{section*.14}}
\@writefile{toc}{\contentsline {section}{4.5: Exercises 5,7,9,11,29,31}{2}{section*.15}}
\@writefile{toc}{\contentsline {subsection}{Exercises 5 - 12}{2}{section*.16}}
\@writefile{toc}{\contentsline {subsubsection}{Ex. 5}{3}{section*.17}}
\@writefile{toc}{\contentsline {subsubsection}{Ex. 7}{3}{section*.18}}
\@writefile{toc}{\contentsline {subsubsection}{Ex. 9}{3}{section*.19}}
\@writefile{toc}{\contentsline {subsubsection}{Ex. 11}{3}{section*.20}}
\@writefile{toc}{\contentsline {subsection}{Exercises 29-34}{3}{section*.21}}
\@writefile{toc}{\contentsline {subsubsection}{Ex. 29}{4}{section*.22}}
\@writefile{toc}{\contentsline {subsubsection}{Ex. 31}{4}{section*.23}}
\@writefile{toc}{\contentsline {section}{4.6: Exercises 1,15,23,29,35,39,40,41,42,43,53}{4}{section*.24}}
\@writefile{toc}{\contentsline {subsection}{Exercises 1-8}{4}{section*.25}}
\@writefile{toc}{\contentsline {subsubsection}{Ex. 1}{4}{section*.26}}
\@writefile{toc}{\contentsline {subsection}{Exercises 13-18}{4}{section*.27}}
\@writefile{toc}{\contentsline {subsubsection}{Ex. 15}{4}{section*.28}}
\@writefile{toc}{\contentsline {subsection}{Exercises 23 - 28}{5}{section*.29}}
\@writefile{toc}{\contentsline {subsubsection}{Ex. 23}{5}{section*.30}}
\@writefile{toc}{\contentsline {subsection}{Exercises 29-34}{5}{section*.31}}
\@writefile{toc}{\contentsline {subsubsection}{Ex. 29}{5}{section*.32}}
\@writefile{toc}{\contentsline {subsection}{Exercises 35 - 38}{5}{section*.33}}
\@writefile{toc}{\contentsline {subsubsection}{Ex. 35}{5}{section*.34}}
\@writefile{toc}{\contentsline {subsection}{Exercises 39 - 42}{5}{section*.35}}
\@writefile{toc}{\contentsline {subsection}{Exercises 43 - 48}{6}{section*.36}}
\@writefile{toc}{\contentsline {subsubsection}{Ex. 43}{6}{section*.37}}
\@writefile{toc}{\contentsline {subsection}{Exercises 53-56}{6}{section*.38}}
\@writefile{toc}{\contentsline {subsubsection}{Ex. 53}{6}{section*.39}}
\@writefile{toc}{\contentsline {section}{4.7: Exercises 1,3,5,7,21,22,27,33,34,35,41,47,49}{6}{section*.40}}
\@writefile{toc}{\contentsline {subsection}{Exercises 1-12}{6}{section*.41}}
\@writefile{toc}{\contentsline {subsubsection}{Ex. 1}{6}{section*.42}}
\@writefile{toc}{\contentsline {subsubsection}{Ex. 3}{6}{section*.43}}
\@writefile{toc}{\contentsline {subsubsection}{Ex. 5}{7}{section*.44}}
\@writefile{toc}{\contentsline {subsubsection}{Ex. 7}{7}{section*.45}}
\@writefile{toc}{\contentsline {subsection}{Exercises 21-22}{7}{section*.46}}
\@writefile{toc}{\contentsline {subsubsection}{Ex. 21}{7}{section*.47}}
\@writefile{toc}{\contentsline {subsubsection}{Ex. 22}{7}{section*.48}}
\@writefile{toc}{\contentsline {subsection}{Exercises 23-32}{7}{section*.49}}
\@writefile{toc}{\contentsline {subsubsection}{Ex. 27}{7}{section*.50}}
\@writefile{toc}{\contentsline {subsection}{Exercises 33-36}{8}{section*.51}}
\@writefile{toc}{\contentsline {subsubsection}{Ex. 33}{8}{section*.52}}
\@writefile{toc}{\contentsline {subsubsection}{Ex. 34}{8}{section*.53}}
\@writefile{toc}{\contentsline {subsubsection}{Ex. 35}{9}{section*.54}}
\@writefile{toc}{\contentsline {subsubsection}{Ex. 36}{9}{section*.55}}
\@writefile{toc}{\contentsline {subsection}{Exercises 41-46}{10}{section*.56}}
\@writefile{toc}{\contentsline {subsubsection}{Ex. 41}{10}{section*.57}}
\@writefile{toc}{\contentsline {subsection}{Exercises 47-52}{10}{section*.58}}
\@writefile{toc}{\contentsline {subsubsection}{Ex. 47}{10}{section*.59}}
\@writefile{toc}{\contentsline {subsubsection}{Ex. 49}{10}{section*.60}}
\@writefile{toc}{\contentsline {section}{4.8: Exercises 2,5,18,29,31,32}{11}{section*.61}}
