\relax 
\providecommand\hyper@newdestlabel[2]{}
\providecommand\HyperFirstAtBeginDocument{\AtBeginDocument}
\HyperFirstAtBeginDocument{\ifx\hyper@anchor\@undefined
\global\let\oldcontentsline\contentsline
\gdef\contentsline#1#2#3#4{\oldcontentsline{#1}{#2}{#3}}
\global\let\oldnewlabel\newlabel
\gdef\newlabel#1#2{\newlabelxx{#1}#2}
\gdef\newlabelxx#1#2#3#4#5#6{\oldnewlabel{#1}{{#2}{#3}}}
\AtEndDocument{\ifx\hyper@anchor\@undefined
\let\contentsline\oldcontentsline
\let\newlabel\oldnewlabel
\fi}
\fi}
\global\let\hyper@last\relax 
\gdef\HyperFirstAtBeginDocument#1{#1}
\providecommand\HyField@AuxAddToFields[1]{}
\providecommand\HyField@AuxAddToCoFields[2]{}
\@writefile{toc}{\contentsline {section}{5.1 Exercises 1,5,9,15,34,39,47,51,56,58,59,69,73}{1}{section*.1}}
\@writefile{toc}{\contentsline {subsection}{Ex. 1-4}{1}{section*.2}}
\@writefile{toc}{\contentsline {subsubsection}{Ex. 1}{1}{section*.3}}
\@writefile{toc}{\contentsline {subsection}{Ex. 5 - 8}{1}{section*.4}}
\@writefile{toc}{\contentsline {subsubsection}{Ex. 5}{1}{section*.5}}
\@writefile{toc}{\contentsline {subsection}{Ex. 9 - 16}{1}{section*.6}}
\@writefile{toc}{\contentsline {subsubsection}{Ex. 9}{2}{section*.7}}
\@writefile{toc}{\contentsline {subsubsection}{Ex. 15}{2}{section*.8}}
\@writefile{toc}{\contentsline {subsection}{Ex. 33 - 38}{2}{section*.9}}
\@writefile{toc}{\contentsline {subsubsection}{Ex. 34}{2}{section*.10}}
\@writefile{toc}{\contentsline {subsection}{Ex. 39-46}{2}{section*.11}}
\@writefile{toc}{\contentsline {subsubsection}{Ex. 39}{2}{section*.12}}
\@writefile{toc}{\contentsline {subsection}{Ex. 47 - 50}{2}{section*.13}}
\@writefile{toc}{\contentsline {subsubsection}{Ex. 47}{3}{section*.14}}
\@writefile{toc}{\contentsline {subsection}{Ex. 51 - 56}{3}{section*.15}}
\@writefile{toc}{\contentsline {subsubsection}{Ex. 51}{3}{section*.16}}
\@writefile{toc}{\contentsline {subsubsection}{Ex. 56}{3}{section*.17}}
\@writefile{toc}{\contentsline {subsubsection}{Ex. 58}{3}{section*.18}}
\@writefile{toc}{\contentsline {subsubsection}{Ex. 59}{4}{section*.19}}
\@writefile{toc}{\contentsline {subsubsection}{Ex. 69}{4}{section*.20}}
\@writefile{toc}{\contentsline {subsubsection}{Ex. 73}{4}{section*.21}}
\@writefile{toc}{\contentsline {section}{5.2 13,20,33}{4}{section*.22}}
\@writefile{toc}{\contentsline {subsubsection}{Ex 1}{4}{section*.23}}
\@writefile{toc}{\contentsline {subsubsection}{Ex. 5}{4}{section*.24}}
\@writefile{toc}{\contentsline {subsubsection}{Ex. 13}{4}{section*.25}}
\@writefile{toc}{\contentsline {subsubsection}{Ex. 20}{4}{section*.26}}
\@writefile{toc}{\contentsline {subsubsection}{Ex. 33}{5}{section*.27}}
\@writefile{toc}{\contentsline {section}{5.3 5,7,8,14,29,35,37,43,47,48,55,66}{5}{section*.28}}
\@writefile{toc}{\contentsline {subsubsection}{Ex. 5}{5}{section*.29}}
\@writefile{toc}{\contentsline {subsubsection}{Ex. 7}{5}{section*.30}}
\@writefile{toc}{\contentsline {subsubsection}{Ex. 8}{5}{section*.31}}
\@writefile{toc}{\contentsline {subsubsection}{Ex. 14}{5}{section*.32}}
\@writefile{toc}{\contentsline {subsubsection}{Ex. 29}{5}{section*.33}}
\@writefile{toc}{\contentsline {subsubsection}{Ex. 35}{6}{section*.34}}
\@writefile{toc}{\contentsline {subsubsection}{Ex. 37}{6}{section*.35}}
\@writefile{toc}{\contentsline {subsubsection}{Ex. 43}{6}{section*.36}}
\@writefile{toc}{\contentsline {subsubsection}{Ex. 47}{6}{section*.37}}
\@writefile{toc}{\contentsline {subsubsection}{Ex. 48}{7}{section*.38}}
\@writefile{toc}{\contentsline {subsubsection}{Ex. 55}{7}{section*.39}}
\@writefile{toc}{\contentsline {subsubsection}{Ex. 66}{7}{section*.40}}
\@writefile{toc}{\contentsline {section}{5.4 5,10,23,35,37,45}{7}{section*.41}}
\@writefile{toc}{\contentsline {subsubsection}{Ex. 5}{7}{section*.42}}
\@writefile{toc}{\contentsline {subsubsection}{Ex. 10}{8}{section*.43}}
\@writefile{toc}{\contentsline {subsubsection}{Ex. 23}{8}{section*.44}}
\@writefile{toc}{\contentsline {subsubsection}{Ex. 35}{8}{section*.45}}
\@writefile{toc}{\contentsline {subsubsection}{Ex. 37}{9}{section*.46}}
\@writefile{toc}{\contentsline {subsubsection}{Ex. 45}{9}{section*.47}}
