\relax 
\providecommand\hyper@newdestlabel[2]{}
\providecommand\HyperFirstAtBeginDocument{\AtBeginDocument}
\HyperFirstAtBeginDocument{\ifx\hyper@anchor\@undefined
\global\let\oldcontentsline\contentsline
\gdef\contentsline#1#2#3#4{\oldcontentsline{#1}{#2}{#3}}
\global\let\oldnewlabel\newlabel
\gdef\newlabel#1#2{\newlabelxx{#1}#2}
\gdef\newlabelxx#1#2#3#4#5#6{\oldnewlabel{#1}{{#2}{#3}}}
\AtEndDocument{\ifx\hyper@anchor\@undefined
\let\contentsline\oldcontentsline
\let\newlabel\oldnewlabel
\fi}
\fi}
\global\let\hyper@last\relax 
\gdef\HyperFirstAtBeginDocument#1{#1}
\providecommand\HyField@AuxAddToFields[1]{}
\providecommand\HyField@AuxAddToCoFields[2]{}
\@writefile{toc}{\contentsline {section}{5.5: Exercises 13, 19, 38, 42, 45}{1}{section*.1}}
\@writefile{toc}{\contentsline {subsection}{Exercise 5.5.13}{1}{section*.2}}
\@writefile{toc}{\contentsline {subsection}{Exercise 5.5.19}{1}{section*.3}}
\@writefile{toc}{\contentsline {subsection}{Exercise 5.5.38}{2}{section*.4}}
\@writefile{toc}{\contentsline {subsection}{Exercise 5.5.42}{3}{section*.5}}
\@writefile{toc}{\contentsline {subsection}{Exercise 5.5.45}{3}{section*.6}}
\@writefile{toc}{\contentsline {section}{5.6: Exercises 5, 17, 36, 40}{3}{section*.7}}
\@writefile{toc}{\contentsline {subsection}{Exercise 5.6.5}{3}{section*.8}}
\@writefile{toc}{\contentsline {subsection}{Exercise 5.6.17}{4}{section*.9}}
\@writefile{toc}{\contentsline {subsection}{Exericse 5.6.36}{4}{section*.10}}
\@writefile{toc}{\contentsline {subsection}{Exercise 5.6.40}{5}{section*.11}}
\@writefile{toc}{\contentsline {section}{6.1: Exercises 5, 11, 13, 17, 21, 25, 35, 41, 47, 51}{5}{section*.12}}
\@writefile{toc}{\contentsline {subsection}{Exercise 6.1.5}{5}{section*.13}}
\@writefile{toc}{\contentsline {subsection}{Exercise 6.1.11}{5}{section*.14}}
\@writefile{toc}{\contentsline {subsection}{Exercise 6.1.13}{5}{section*.15}}
\@writefile{toc}{\contentsline {subsection}{Exercise 6.1.17}{5}{section*.16}}
\@writefile{toc}{\contentsline {subsection}{Exercise 6.1.21}{5}{section*.17}}
\@writefile{toc}{\contentsline {subsection}{Exericse 6.1.25}{6}{section*.18}}
\@writefile{toc}{\contentsline {subsection}{Exercise 6.1.35}{6}{section*.19}}
\@writefile{toc}{\contentsline {subsection}{Exercise 6.1.41}{6}{section*.20}}
\@writefile{toc}{\contentsline {subsection}{Exercise 6.1.43}{6}{section*.21}}
\@writefile{toc}{\contentsline {subsection}{Exercise 6.1.46}{7}{section*.22}}
\@writefile{toc}{\contentsline {subsection}{Exercise 6.1.47}{7}{section*.23}}
\@writefile{toc}{\contentsline {subsection}{Exercise 6.1.51}{7}{section*.24}}
\@writefile{toc}{\contentsline {section}{6.2: Exercises 1, 9, 13, 25, 29, 33, 47, 49, 57}{8}{section*.25}}
\@writefile{toc}{\contentsline {subsection}{Exercise 6.2.1}{8}{section*.26}}
\@writefile{toc}{\contentsline {subsection}{Exercise 6.2.9}{8}{section*.27}}
\@writefile{toc}{\contentsline {subsection}{Exercise 6.2.13}{8}{section*.28}}
\@writefile{toc}{\contentsline {subsection}{Exercise 6.2.25}{9}{section*.29}}
\@writefile{toc}{\contentsline {subsection}{Exercise 6.2.29}{9}{section*.30}}
\@writefile{toc}{\contentsline {subsection}{Exercise 6.2.33}{10}{section*.31}}
\@writefile{toc}{\contentsline {subsection}{Exercise 6.2.47}{10}{section*.32}}
\@writefile{toc}{\contentsline {subsection}{Exericse 6.2.49}{11}{section*.33}}
\@writefile{toc}{\contentsline {subsection}{Exercise 6.2.57}{11}{section*.34}}
\@writefile{toc}{\contentsline {subsubsection}{Exercise 6.2.57a}{11}{section*.35}}
\@writefile{toc}{\contentsline {subsubsection}{Exercise 6.2.57b}{11}{section*.36}}
\@writefile{toc}{\contentsline {subsubsection}{Exercise 6.2.57c}{11}{section*.37}}
\@writefile{toc}{\contentsline {subsubsection}{Exercise 6.2.57d}{12}{section*.38}}
