\relax 
\providecommand\hyper@newdestlabel[2]{}
\providecommand\HyperFirstAtBeginDocument{\AtBeginDocument}
\HyperFirstAtBeginDocument{\ifx\hyper@anchor\@undefined
\global\let\oldcontentsline\contentsline
\gdef\contentsline#1#2#3#4{\oldcontentsline{#1}{#2}{#3}}
\global\let\oldnewlabel\newlabel
\gdef\newlabel#1#2{\newlabelxx{#1}#2}
\gdef\newlabelxx#1#2#3#4#5#6{\oldnewlabel{#1}{{#2}{#3}}}
\AtEndDocument{\ifx\hyper@anchor\@undefined
\let\contentsline\oldcontentsline
\let\newlabel\oldnewlabel
\fi}
\fi}
\global\let\hyper@last\relax 
\gdef\HyperFirstAtBeginDocument#1{#1}
\providecommand\HyField@AuxAddToFields[1]{}
\providecommand\HyField@AuxAddToCoFields[2]{}
\@writefile{toc}{\contentsline {section}{6.3: Exercises: 6, 11, 15, 27, 31, 44, 53, 55}{1}{section*.1}}
\@writefile{toc}{\contentsline {subsection}{Exercise 6.3.6}{1}{section*.2}}
\@writefile{toc}{\contentsline {subsection}{Exercises 11 - 26}{1}{section*.3}}
\@writefile{toc}{\contentsline {subsection}{Exercise 6.3.11}{1}{section*.4}}
\@writefile{toc}{\contentsline {subsection}{Exercise 6.3.15}{1}{section*.5}}
\@writefile{toc}{\contentsline {subsection}{Exercises 27-32}{2}{section*.6}}
\@writefile{toc}{\contentsline {subsection}{Exercise 6.3.27}{2}{section*.7}}
\@writefile{toc}{\contentsline {subsection}{Exercise 6.3.31}{2}{section*.8}}
\@writefile{toc}{\contentsline {subsection}{Exercise 6.3.44}{2}{section*.9}}
\@writefile{toc}{\contentsline {subsection}{Exercise 6.3.53}{3}{section*.10}}
\@writefile{toc}{\contentsline {subsection}{Exercise 6.3.55}{3}{section*.11}}
\@writefile{toc}{\contentsline {section}{6.4: Exercises: 1, 7, 9, 23, 31 - 35, 49}{3}{section*.12}}
\@writefile{toc}{\contentsline {subsection}{Exercise 6.4.1}{3}{section*.13}}
\@writefile{toc}{\contentsline {subsection}{Exercise 6.4.7}{3}{section*.14}}
\@writefile{toc}{\contentsline {subsection}{Exercise 6.4.9}{4}{section*.15}}
\@writefile{toc}{\contentsline {subsection}{Exercise 6.4.23}{4}{section*.16}}
\@writefile{toc}{\contentsline {subsection}{Exercise 6.4.31}{4}{section*.17}}
\@writefile{toc}{\contentsline {subsection}{Exercise 6.4.32}{4}{section*.18}}
\@writefile{toc}{\contentsline {subsection}{Exercise 6.4.33}{4}{section*.19}}
\@writefile{toc}{\contentsline {subsection}{Exercise 6.4.34}{4}{section*.20}}
\@writefile{toc}{\contentsline {subsection}{Exercise 6.4.35}{4}{section*.21}}
\@writefile{toc}{\contentsline {subsection}{Exercise 6.4.49}{5}{section*.22}}
\@writefile{toc}{\contentsline {section}{6.5: Exercises: 1, 21, 25, 27, 29, 41, 43}{5}{section*.23}}
\@writefile{toc}{\contentsline {subsection}{Exercise 6.5.1}{5}{section*.24}}
\@writefile{toc}{\contentsline {subsection}{Exercise 6.5.21}{5}{section*.25}}
\@writefile{toc}{\contentsline {subsection}{Exercise 6.5.25}{5}{section*.26}}
\@writefile{toc}{\contentsline {subsection}{Exercise 6.5.27}{6}{section*.27}}
\@writefile{toc}{\contentsline {subsection}{Exercise 6.5.29}{6}{section*.28}}
\@writefile{toc}{\contentsline {subsection}{Exercise 6.5.41}{7}{section*.29}}
\@writefile{toc}{\contentsline {subsection}{Exercise 6.5.43}{7}{section*.30}}
