\BOOKMARK [1][-]{section*.1}{\376\377\0006\000.\0003\000:\000\040\000E\000x\000e\000r\000c\000i\000s\000e\000s\000:\000\040\0006\000,\000\040\0001\0001\000,\000\040\0001\0005\000,\000\040\0002\0007\000,\000\040\0003\0001\000,\000\040\0004\0004\000,\000\040\0005\0003\000,\000\040\0005\0005}{}% 1
\BOOKMARK [2][-]{section*.2}{\376\377\000E\000x\000e\000r\000c\000i\000s\000e\000\040\0006\000.\0003\000.\0006}{section*.1}% 2
\BOOKMARK [2][-]{section*.3}{\376\377\000E\000x\000e\000r\000c\000i\000s\000e\000s\000\040\0001\0001\000\040\000-\000\040\0002\0006}{section*.1}% 3
\BOOKMARK [2][-]{section*.4}{\376\377\000E\000x\000e\000r\000c\000i\000s\000e\000\040\0006\000.\0003\000.\0001\0001}{section*.1}% 4
\BOOKMARK [2][-]{section*.5}{\376\377\000E\000x\000e\000r\000c\000i\000s\000e\000\040\0006\000.\0003\000.\0001\0005}{section*.1}% 5
\BOOKMARK [2][-]{section*.6}{\376\377\000E\000x\000e\000r\000c\000i\000s\000e\000s\000\040\0002\0007\000-\0003\0002}{section*.1}% 6
\BOOKMARK [2][-]{section*.7}{\376\377\000E\000x\000e\000r\000c\000i\000s\000e\000\040\0006\000.\0003\000.\0002\0007}{section*.1}% 7
\BOOKMARK [2][-]{section*.8}{\376\377\000E\000x\000e\000r\000c\000i\000s\000e\000\040\0006\000.\0003\000.\0003\0001}{section*.1}% 8
\BOOKMARK [2][-]{section*.9}{\376\377\000E\000x\000e\000r\000c\000i\000s\000e\000\040\0006\000.\0003\000.\0004\0004}{section*.1}% 9
\BOOKMARK [2][-]{section*.10}{\376\377\000E\000x\000e\000r\000c\000i\000s\000e\000\040\0006\000.\0003\000.\0005\0003}{section*.1}% 10
\BOOKMARK [2][-]{section*.11}{\376\377\000E\000x\000e\000r\000c\000i\000s\000e\000\040\0006\000.\0003\000.\0005\0005}{section*.1}% 11
\BOOKMARK [1][-]{section*.12}{\376\377\0006\000.\0004\000:\000\040\000E\000x\000e\000r\000c\000i\000s\000e\000s\000:\000\040\0001\000,\000\040\0007\000,\000\040\0009\000,\000\040\0002\0003\000,\000\040\0003\0001\000\040\000-\000\040\0003\0005\000,\000\040\0004\0009}{}% 12
\BOOKMARK [2][-]{section*.13}{\376\377\000E\000x\000e\000r\000c\000i\000s\000e\000\040\0006\000.\0004\000.\0001}{section*.12}% 13
\BOOKMARK [2][-]{section*.14}{\376\377\000E\000x\000e\000r\000c\000i\000s\000e\000\040\0006\000.\0004\000.\0007}{section*.12}% 14
\BOOKMARK [2][-]{section*.15}{\376\377\000E\000x\000e\000r\000c\000i\000s\000e\000\040\0006\000.\0004\000.\0009}{section*.12}% 15
\BOOKMARK [2][-]{section*.16}{\376\377\000E\000x\000e\000r\000c\000i\000s\000e\000\040\0006\000.\0004\000.\0002\0003}{section*.12}% 16
\BOOKMARK [2][-]{section*.17}{\376\377\000E\000x\000e\000r\000c\000i\000s\000e\000\040\0006\000.\0004\000.\0003\0001}{section*.12}% 17
\BOOKMARK [2][-]{section*.18}{\376\377\000E\000x\000e\000r\000c\000i\000s\000e\000\040\0006\000.\0004\000.\0003\0002}{section*.12}% 18
\BOOKMARK [2][-]{section*.19}{\376\377\000E\000x\000e\000r\000c\000i\000s\000e\000\040\0006\000.\0004\000.\0003\0003}{section*.12}% 19
\BOOKMARK [2][-]{section*.20}{\376\377\000E\000x\000e\000r\000c\000i\000s\000e\000\040\0006\000.\0004\000.\0003\0004}{section*.12}% 20
\BOOKMARK [2][-]{section*.21}{\376\377\000E\000x\000e\000r\000c\000i\000s\000e\000\040\0006\000.\0004\000.\0003\0005}{section*.12}% 21
\BOOKMARK [2][-]{section*.22}{\376\377\000E\000x\000e\000r\000c\000i\000s\000e\000\040\0006\000.\0004\000.\0004\0009}{section*.12}% 22
\BOOKMARK [1][-]{section*.23}{\376\377\0006\000.\0005\000:\000\040\000E\000x\000e\000r\000c\000i\000s\000e\000s\000:\000\040\0001\000,\000\040\0002\0001\000,\000\040\0002\0005\000,\000\040\0002\0007\000,\000\040\0002\0009\000,\000\040\0004\0001\000,\000\040\0004\0003}{}% 23
\BOOKMARK [2][-]{section*.24}{\376\377\000E\000x\000e\000r\000c\000i\000s\000e\000\040\0006\000.\0005\000.\0001}{section*.23}% 24
\BOOKMARK [2][-]{section*.25}{\376\377\000E\000x\000e\000r\000c\000i\000s\000e\000\040\0006\000.\0005\000.\0002\0001}{section*.23}% 25
\BOOKMARK [2][-]{section*.26}{\376\377\000E\000x\000e\000r\000c\000i\000s\000e\000\040\0006\000.\0005\000.\0002\0005}{section*.23}% 26
\BOOKMARK [2][-]{section*.27}{\376\377\000E\000x\000e\000r\000c\000i\000s\000e\000\040\0006\000.\0005\000.\0002\0007}{section*.23}% 27
\BOOKMARK [2][-]{section*.28}{\376\377\000E\000x\000e\000r\000c\000i\000s\000e\000\040\0006\000.\0005\000.\0002\0009}{section*.23}% 28
\BOOKMARK [2][-]{section*.29}{\376\377\000E\000x\000e\000r\000c\000i\000s\000e\000\040\0006\000.\0005\000.\0004\0001}{section*.23}% 29
\BOOKMARK [2][-]{section*.30}{\376\377\000E\000x\000e\000r\000c\000i\000s\000e\000\040\0006\000.\0005\000.\0004\0003}{section*.23}% 30
