\relax 
\providecommand\hyper@newdestlabel[2]{}
\providecommand\HyperFirstAtBeginDocument{\AtBeginDocument}
\HyperFirstAtBeginDocument{\ifx\hyper@anchor\@undefined
\global\let\oldcontentsline\contentsline
\gdef\contentsline#1#2#3#4{\oldcontentsline{#1}{#2}{#3}}
\global\let\oldnewlabel\newlabel
\gdef\newlabel#1#2{\newlabelxx{#1}#2}
\gdef\newlabelxx#1#2#3#4#5#6{\oldnewlabel{#1}{{#2}{#3}}}
\AtEndDocument{\ifx\hyper@anchor\@undefined
\let\contentsline\oldcontentsline
\let\newlabel\oldnewlabel
\fi}
\fi}
\global\let\hyper@last\relax 
\gdef\HyperFirstAtBeginDocument#1{#1}
\providecommand\HyField@AuxAddToFields[1]{}
\providecommand\HyField@AuxAddToCoFields[2]{}
\@writefile{toc}{\contentsline {section}{Chapter 6.6: Exercises 1, 3, 5, 7, 11, 13, 16, 19, 23, 27, 31, 36, 37, 45, 51, 57, 61}{1}{section*.1}}
\@writefile{toc}{\contentsline {subsubsection}{Exercise 6.6.1}{1}{section*.2}}
\@writefile{toc}{\contentsline {subsection}{Exercises 6.6.3 - 6.6.12}{1}{section*.3}}
\@writefile{toc}{\contentsline {subsubsection}{Exercise 6.6.3}{1}{section*.4}}
\@writefile{toc}{\contentsline {subsubsection}{Exercise 6.6.5}{2}{section*.5}}
\@writefile{toc}{\contentsline {subsubsection}{Exercise 6.6.7}{2}{section*.6}}
\@writefile{toc}{\contentsline {subsubsection}{Exercise 6.6.11}{2}{section*.7}}
\@writefile{toc}{\contentsline {subsection}{Exercises 6.6.13 - 6.6.18}{2}{section*.8}}
\@writefile{toc}{\contentsline {subsubsection}{Exercise 6.6.13}{3}{section*.9}}
\@writefile{toc}{\contentsline {subsubsection}{Exercise 6.6.16}{3}{section*.10}}
\@writefile{toc}{\contentsline {subsection}{Exercises 6.6.19 - 6.6.22}{3}{section*.11}}
\@writefile{toc}{\contentsline {subsubsection}{Exercise 6.6.19}{3}{section*.12}}
\@writefile{toc}{\contentsline {subsection}{Exercises 6.6.23 - 6.6.26}{3}{section*.13}}
\@writefile{toc}{\contentsline {subsubsection}{Exercise 6.6.23}{3}{section*.14}}
\@writefile{toc}{\contentsline {subsection}{Exercises 6.6.27 - 6.6.30}{3}{section*.15}}
\@writefile{toc}{\contentsline {subsubsection}{Exercise 6.6.27}{4}{section*.16}}
\@writefile{toc}{\contentsline {subsection}{Exercises 6.6.31 - 6.6.38}{5}{section*.17}}
\@writefile{toc}{\contentsline {subsubsection}{Exercise 6.6.31}{5}{section*.18}}
\@writefile{toc}{\contentsline {subsubsection}{Exercise 6.6.36}{5}{section*.19}}
\@writefile{toc}{\contentsline {subsubsection}{Exercise 6.6.37}{5}{section*.20}}
\@writefile{toc}{\contentsline {subsubsection}{Exercise 6.6.45}{6}{section*.21}}
\@writefile{toc}{\contentsline {subsubsection}{Exercise 6.6.51}{6}{section*.22}}
\@writefile{toc}{\contentsline {subsubsection}{Exercise 6.6.57}{7}{section*.23}}
\@writefile{toc}{\contentsline {subsubsection}{Exercise 6.6.61}{8}{section*.24}}
