\relax 
\providecommand\hyper@newdestlabel[2]{}
\providecommand\HyperFirstAtBeginDocument{\AtBeginDocument}
\HyperFirstAtBeginDocument{\ifx\hyper@anchor\@undefined
\global\let\oldcontentsline\contentsline
\gdef\contentsline#1#2#3#4{\oldcontentsline{#1}{#2}{#3}}
\global\let\oldnewlabel\newlabel
\gdef\newlabel#1#2{\newlabelxx{#1}#2}
\gdef\newlabelxx#1#2#3#4#5#6{\oldnewlabel{#1}{{#2}{#3}}}
\AtEndDocument{\ifx\hyper@anchor\@undefined
\let\contentsline\oldcontentsline
\let\newlabel\oldnewlabel
\fi}
\fi}
\global\let\hyper@last\relax 
\gdef\HyperFirstAtBeginDocument#1{#1}
\providecommand\HyField@AuxAddToFields[1]{}
\providecommand\HyField@AuxAddToCoFields[2]{}
\@writefile{toc}{\contentsline {section}{6.3.11 - 22}{1}{section*.1}}
\@writefile{toc}{\contentsline {subsection}{6.3.11}{1}{section*.2}}
\@writefile{toc}{\contentsline {subsection}{6.3.12}{1}{section*.3}}
\@writefile{toc}{\contentsline {subsection}{6.3.13}{1}{section*.4}}
\@writefile{toc}{\contentsline {subsection}{6.3.14}{2}{section*.5}}
\@writefile{toc}{\contentsline {subsection}{6.3.15}{2}{section*.6}}
\@writefile{toc}{\contentsline {subsection}{6.3.16}{2}{section*.7}}
\@writefile{toc}{\contentsline {subsection}{6.3.17}{2}{section*.8}}
\@writefile{toc}{\contentsline {subsection}{6.3.18}{3}{section*.9}}
\@writefile{toc}{\contentsline {subsection}{6.3.19}{3}{section*.10}}
\@writefile{toc}{\contentsline {subsection}{6.3.20}{3}{section*.11}}
\@writefile{toc}{\contentsline {subsection}{6.3.21}{3}{section*.12}}
\@writefile{toc}{\contentsline {subsection}{6.3.22}{3}{section*.13}}
\@writefile{toc}{\contentsline {section}{6.3.23 - 26, 31, 32}{4}{section*.14}}
\@writefile{toc}{\contentsline {subsection}{6.3.23}{4}{section*.15}}
\@writefile{toc}{\contentsline {subsection}{6.3.24}{4}{section*.16}}
\@writefile{toc}{\contentsline {subsection}{6.3.25}{4}{section*.17}}
\@writefile{toc}{\contentsline {subsection}{6.3.26}{4}{section*.18}}
\@writefile{toc}{\contentsline {section}{6.3.27 - 30}{4}{section*.19}}
\@writefile{toc}{\contentsline {subsection}{6.3.27}{4}{section*.20}}
\@writefile{toc}{\contentsline {subsection}{6.3.28}{5}{section*.21}}
\@writefile{toc}{\contentsline {section}{6.3.40,43,44,45}{5}{section*.22}}
\@writefile{toc}{\contentsline {subsection}{6.3.40}{5}{section*.23}}
\@writefile{toc}{\contentsline {subsection}{6.3.43}{5}{section*.24}}
\@writefile{toc}{\contentsline {section}{6.4.27 - 30}{5}{section*.25}}
\@writefile{toc}{\contentsline {subsection}{6.4.27}{5}{section*.26}}
\@writefile{toc}{\contentsline {subsection}{6.4.28}{6}{section*.27}}
\@writefile{toc}{\contentsline {subsection}{6.4.29}{6}{section*.28}}
\@writefile{toc}{\contentsline {section}{6.4.43 - 50}{6}{section*.29}}
\@writefile{toc}{\contentsline {subsection}{6.4.43}{6}{section*.30}}
\@writefile{toc}{\contentsline {subsection}{6.4.44}{6}{section*.31}}
\@writefile{toc}{\contentsline {subsection}{6.4.45}{6}{section*.32}}
\@writefile{toc}{\contentsline {subsection}{6.4.46}{7}{section*.33}}
\@writefile{toc}{\contentsline {subsection}{6.4.47}{7}{section*.34}}
\@writefile{toc}{\contentsline {subsection}{6.4.48}{7}{section*.35}}
\@writefile{toc}{\contentsline {section}{6.5.25 - 44}{7}{section*.36}}
\@writefile{toc}{\contentsline {subsection}{6.5.25}{7}{section*.37}}
\@writefile{toc}{\contentsline {subsection}{6.5.26}{8}{section*.38}}
\@writefile{toc}{\contentsline {subsection}{6.5.27}{8}{section*.39}}
\@writefile{toc}{\contentsline {subsection}{6.5.28}{8}{section*.40}}
\@writefile{toc}{\contentsline {subsection}{6.5.29}{9}{section*.41}}
\@writefile{toc}{\contentsline {subsection}{6.5.30}{9}{section*.42}}
\@writefile{toc}{\contentsline {section}{Given the graph of two complex numbers, graph their sum and difference}{9}{section*.43}}
\@writefile{toc}{\contentsline {section}{6.6.19 - 26 Graph products and quotients}{9}{section*.44}}
\@writefile{toc}{\contentsline {subsection}{6.6.19}{9}{section*.45}}
\@writefile{toc}{\contentsline {subsection}{6.6.20}{10}{section*.46}}
\@writefile{toc}{\contentsline {subsection}{6.6.21}{10}{section*.47}}
\@writefile{toc}{\contentsline {section}{6.6.27 - 30 Convert a pair of complex numbers from rectangular to polar form, find their product in polar form, and convert that into rectangular form}{10}{section*.48}}
\@writefile{toc}{\contentsline {subsection}{6.6.27}{10}{section*.49}}
\@writefile{toc}{\contentsline {section}{6.6.51 - 61 Find complex roots}{11}{section*.50}}
\@writefile{toc}{\contentsline {subsection}{6.6.51}{11}{section*.51}}
\@writefile{toc}{\contentsline {section}{9.4.21 - 24, find the nth term and the sum of the first n terms of an arithmetic sequence}{11}{section*.52}}
\@writefile{toc}{\contentsline {subsection}{9.4.21}{11}{section*.53}}
\@writefile{toc}{\contentsline {subsection}{9.4.22}{11}{section*.54}}
\@writefile{toc}{\contentsline {subsection}{9.4.23}{12}{section*.55}}
\@writefile{toc}{\contentsline {subsection}{9.4.25}{12}{section*.56}}
\@writefile{toc}{\contentsline {subsection}{9.4.26}{12}{section*.57}}
\@writefile{toc}{\contentsline {section}{Annuities 9.4.36 - 38}{12}{section*.58}}
\@writefile{toc}{\contentsline {section}{9.3.39 Application of the sum of the first n terms of an arithmetic series}{12}{section*.59}}
\@writefile{toc}{\contentsline {section}{Infinite geometric series 9.4.31 - 34, 39}{12}{section*.60}}
\@writefile{toc}{\contentsline {subsection}{9.4.31}{12}{section*.61}}
