\relax 
\providecommand\hyper@newdestlabel[2]{}
\providecommand\HyperFirstAtBeginDocument{\AtBeginDocument}
\HyperFirstAtBeginDocument{\ifx\hyper@anchor\@undefined
\global\let\oldcontentsline\contentsline
\gdef\contentsline#1#2#3#4{\oldcontentsline{#1}{#2}{#3}}
\global\let\oldnewlabel\newlabel
\gdef\newlabel#1#2{\newlabelxx{#1}#2}
\gdef\newlabelxx#1#2#3#4#5#6{\oldnewlabel{#1}{{#2}{#3}}}
\AtEndDocument{\ifx\hyper@anchor\@undefined
\let\contentsline\oldcontentsline
\let\newlabel\oldnewlabel
\fi}
\fi}
\global\let\hyper@last\relax 
\gdef\HyperFirstAtBeginDocument#1{#1}
\providecommand\HyField@AuxAddToFields[1]{}
\providecommand\HyField@AuxAddToCoFields[2]{}
\@writefile{toc}{\contentsline {subsection}{Ruminations}{1}{section*.1}}
\@writefile{toc}{\contentsline {subsection}{How to think of the basic trigonometric functions}{1}{section*.2}}
\@writefile{toc}{\contentsline {subsubsection}{Sine}{1}{section*.3}}
\@writefile{toc}{\contentsline {subsubsection}{Cosine}{2}{section*.4}}
\@writefile{toc}{\contentsline {subsubsection}{Tangent}{2}{section*.5}}
\@writefile{toc}{\contentsline {subsubsection}{Cosecant}{2}{section*.6}}
\@writefile{toc}{\contentsline {subsubsection}{Secant}{2}{section*.7}}
\@writefile{toc}{\contentsline {subsubsection}{Cotangent}{2}{section*.8}}
\@writefile{toc}{\contentsline {subsubsection}{Arcsine}{2}{section*.9}}
\@writefile{toc}{\contentsline {subsubsection}{Arccosine}{3}{section*.10}}
\@writefile{toc}{\contentsline {subsubsection}{Arctangent}{3}{section*.11}}
\@writefile{toc}{\contentsline {subsection}{Composing Trig Functions}{3}{section*.12}}
\@writefile{toc}{\contentsline {subsection}{Classwork November 3rd 2015}{3}{section*.13}}
\@writefile{toc}{\contentsline {subsubsection}{Reciprocal}{3}{section*.14}}
\@writefile{toc}{\contentsline {subsubsection}{Quotient Identities}{3}{section*.15}}
\@writefile{toc}{\contentsline {subsubsection}{Odd-Even Identities}{4}{section*.16}}
\@writefile{toc}{\contentsline {subsubsection}{Cofunction identities}{4}{section*.17}}
\@writefile{toc}{\contentsline {subsubsection}{Tricks with acute angles}{4}{section*.18}}
\@writefile{toc}{\contentsline {subsubsection}{Pythagorean Identities}{4}{section*.19}}
\@writefile{toc}{\contentsline {subsubsection}{Sum and Difference}{5}{section*.20}}
\@writefile{toc}{\contentsline {subsubsection}{More class notes, Nov. 5th 2015}{5}{section*.21}}
\@writefile{toc}{\contentsline {subsubsection}{Double angle formula}{6}{section*.22}}
\@writefile{toc}{\contentsline {subsubsection}{Examples}{6}{section*.23}}
\@writefile{toc}{\contentsline {subsubsection}{Half angle}{6}{section*.24}}
\@writefile{toc}{\contentsline {subsubsection}{Example}{7}{section*.25}}
