\BOOKMARK [2][-]{section*.1}{\376\377\000R\000u\000m\000i\000n\000a\000t\000i\000o\000n\000s}{}% 1
\BOOKMARK [2][-]{section*.2}{\376\377\000H\000o\000w\000\040\000t\000o\000\040\000t\000h\000i\000n\000k\000\040\000o\000f\000\040\000t\000h\000e\000\040\000b\000a\000s\000i\000c\000\040\000t\000r\000i\000g\000o\000n\000o\000m\000e\000t\000r\000i\000c\000\040\000f\000u\000n\000c\000t\000i\000o\000n\000s}{}% 2
\BOOKMARK [3][-]{section*.3}{\376\377\000S\000i\000n\000e}{section*.2}% 3
\BOOKMARK [3][-]{section*.4}{\376\377\000C\000o\000s\000i\000n\000e}{section*.2}% 4
\BOOKMARK [3][-]{section*.5}{\376\377\000T\000a\000n\000g\000e\000n\000t}{section*.2}% 5
\BOOKMARK [3][-]{section*.6}{\376\377\000C\000o\000s\000e\000c\000a\000n\000t}{section*.2}% 6
\BOOKMARK [3][-]{section*.7}{\376\377\000S\000e\000c\000a\000n\000t}{section*.2}% 7
\BOOKMARK [3][-]{section*.8}{\376\377\000C\000o\000t\000a\000n\000g\000e\000n\000t}{section*.2}% 8
\BOOKMARK [3][-]{section*.9}{\376\377\000A\000r\000c\000s\000i\000n\000e}{section*.2}% 9
\BOOKMARK [3][-]{section*.10}{\376\377\000A\000r\000c\000c\000o\000s\000i\000n\000e}{section*.2}% 10
\BOOKMARK [3][-]{section*.11}{\376\377\000A\000r\000c\000t\000a\000n\000g\000e\000n\000t}{section*.2}% 11
\BOOKMARK [2][-]{section*.12}{\376\377\000C\000o\000m\000p\000o\000s\000i\000n\000g\000\040\000T\000r\000i\000g\000\040\000F\000u\000n\000c\000t\000i\000o\000n\000s}{}% 12
\BOOKMARK [2][-]{section*.13}{\376\377\000C\000l\000a\000s\000s\000w\000o\000r\000k\000\040\000N\000o\000v\000e\000m\000b\000e\000r\000\040\0003\000r\000d\000\040\0002\0000\0001\0005}{}% 13
\BOOKMARK [3][-]{section*.14}{\376\377\000R\000e\000c\000i\000p\000r\000o\000c\000a\000l}{section*.13}% 14
\BOOKMARK [3][-]{section*.15}{\376\377\000Q\000u\000o\000t\000i\000e\000n\000t\000\040\000I\000d\000e\000n\000t\000i\000t\000i\000e\000s}{section*.13}% 15
\BOOKMARK [3][-]{section*.16}{\376\377\000O\000d\000d\000-\000E\000v\000e\000n\000\040\000I\000d\000e\000n\000t\000i\000t\000i\000e\000s}{section*.13}% 16
\BOOKMARK [3][-]{section*.17}{\376\377\000C\000o\000f\000u\000n\000c\000t\000i\000o\000n\000\040\000i\000d\000e\000n\000t\000i\000t\000i\000e\000s}{section*.13}% 17
\BOOKMARK [3][-]{section*.18}{\376\377\000T\000r\000i\000c\000k\000s\000\040\000w\000i\000t\000h\000\040\000a\000c\000u\000t\000e\000\040\000a\000n\000g\000l\000e\000s}{section*.13}% 18
\BOOKMARK [3][-]{section*.19}{\376\377\000P\000y\000t\000h\000a\000g\000o\000r\000e\000a\000n\000\040\000I\000d\000e\000n\000t\000i\000t\000i\000e\000s}{section*.13}% 19
\BOOKMARK [3][-]{section*.20}{\376\377\000S\000u\000m\000\040\000a\000n\000d\000\040\000D\000i\000f\000f\000e\000r\000e\000n\000c\000e}{section*.13}% 20
\BOOKMARK [3][-]{section*.21}{\376\377\000M\000o\000r\000e\000\040\000c\000l\000a\000s\000s\000\040\000n\000o\000t\000e\000s\000,\000\040\000N\000o\000v\000.\000\040\0005\000t\000h\000\040\0002\0000\0001\0005}{section*.13}% 21
\BOOKMARK [3][-]{section*.22}{\376\377\000D\000o\000u\000b\000l\000e\000\040\000a\000n\000g\000l\000e\000\040\000f\000o\000r\000m\000u\000l\000a}{section*.13}% 22
\BOOKMARK [3][-]{section*.23}{\376\377\000E\000x\000a\000m\000p\000l\000e\000s}{section*.13}% 23
\BOOKMARK [3][-]{section*.24}{\376\377\000H\000a\000l\000f\000\040\000a\000n\000g\000l\000e}{section*.13}% 24
\BOOKMARK [3][-]{section*.25}{\376\377\000E\000x\000a\000m\000p\000l\000e}{section*.13}% 25
